[{
  "id": 1,
  "photo": "https://picsum.photos/id/1/500/500",
  "text": "Nostrud tempor consequat deserunt aliqua reprehenderit do voluptate do qui consequat labore. Sit aute in Lorem sit culpa amet minim deserunt sint incididunt cupidatat tempor. Commodo amet culpa consequat eiusmod esse sint occaecat duis adipisicing consequat. Excepteur in in incididunt esse. Et sunt cillum occaecat aliquip irure deserunt occaecat. Lorem elit Lorem exercitation proident incididunt. Occaecat in voluptate esse aliqua voluptate ullamco occaecat tempor consequat ullamco id amet. Duis tempor eu commodo cupidatat et qui ad officia nostrud aliqua.\nAdipisicing elit velit laboris est incididunt eiusmod. Do ad laboris irure deserunt. Id magna incididunt in culpa commodo do in eiusmod labore. Voluptate culpa reprehenderit laborum consequat reprehenderit in pariatur duis aute."
}, {
  "id": 2,
  "photo": "https://picsum.photos/id/2/500/500",
  "text": "Consequat anim deserunt incididunt mollit sunt ut tempor cillum. Pariatur proident ad aute pariatur irure anim ut et. Anim esse aute qui eiusmod qui Lorem aliquip est. Cillum amet adipisicing quis occaecat aute do esse fugiat duis dolore labore minim. Quis eu Lorem veniam sit id est proident mollit pariatur aute. Ut incididunt reprehenderit elit est ex magna nisi sunt reprehenderit adipisicing et enim deserunt ex.\nIpsum cupidatat ad minim enim. Elit qui dolor magna ex. Qui eiusmod cillum eu magna ea sint anim commodo cillum cupidatat consectetur adipisicing aliqua adipisicing. Anim incididunt officia ex irure do incididunt minim sunt ullamco fugiat nulla non. Consectetur nisi dolore quis non et in quis irure reprehenderit adipisicing ullamco officia sit ut. Incididunt amet eu elit et sit enim ut. Duis deserunt magna ea magna esse consectetur."
}, {
  "id": 3,
  "photo": "https://picsum.photos/id/3/500/500",
  "text": "Qui sint aute dolore laborum aliqua nostrud quis labore dolor. Ad proident veniam officia do aute ex sit est velit ex est enim nostrud amet. Cillum dolore Lorem minim sunt est incididunt deserunt velit. Et anim irure ipsum dolore voluptate adipisicing. Laboris cupidatat incididunt anim sit est tempor sit ea sit. Ex cillum do voluptate proident laboris laborum ea sunt tempor exercitation. Sit qui do sit proident incididunt excepteur pariatur proident consectetur pariatur aute fugiat adipisicing. Consequat sunt laboris pariatur laborum.\nEt ipsum mollit sit do pariatur officia commodo consectetur excepteur sint nostrud veniam ipsum culpa. Commodo ullamco enim nulla nulla tempor laborum. Ad cupidatat aliquip proident dolor mollit sunt consectetur dolor labore. Id incididunt dolor sunt eu laborum eu ullamco laboris in ut. Deserunt ullamco aliquip magna aliqua deserunt aute amet. Eu pariatur elit enim fugiat eu sit velit dolore pariatur. Id cupidatat cillum quis excepteur ullamco culpa aute cupidatat adipisicing commodo."
}, {
  "id": 4,
  "photo": "https://picsum.photos/id/4/500/500",
  "text": "Ipsum sunt deserunt officia incididunt reprehenderit enim qui. Excepteur laborum voluptate sunt anim elit ipsum tempor Lorem quis Lorem aliquip laborum sint sit. Do cupidatat laboris aliqua anim aute culpa laboris esse ipsum in non consequat. Pariatur adipisicing labore commodo irure dolore sit in ullamco. Commodo et excepteur voluptate irure labore nulla quis officia proident est ad fugiat nisi dolore. Do ea tempor cupidatat mollit qui. Minim cillum ut dolore elit proident elit dolor dolor proident aute.\nTempor Lorem sunt aliqua nulla ea duis dolor esse magna nisi. Lorem esse laboris magna aliquip pariatur proident culpa qui nulla elit occaecat. Do minim elit pariatur elit quis. Consequat pariatur voluptate nostrud aliquip sunt anim cillum Lorem irure voluptate culpa consectetur do anim. Et esse ut eu ullamco eiusmod do duis. Sunt ut amet cupidatat esse ullamco esse magna ut ex velit exercitation. Non anim quis et amet deserunt id labore consectetur veniam pariatur elit excepteur culpa fugiat."
}, {
  "id": 5,
  "photo": "https://picsum.photos/id/5/500/500",
  "text": "Anim commodo enim non reprehenderit cillum cillum Lorem tempor ullamco veniam ex. Et adipisicing laborum anim amet. Officia Lorem quis aliqua proident excepteur. Sint adipisicing esse exercitation incididunt sint reprehenderit nostrud amet dolor. Commodo incididunt esse incididunt nulla et ullamco proident consectetur Lorem sunt. Eu incididunt officia adipisicing laboris cillum do proident veniam quis veniam.\nConsequat aute sint pariatur mollit fugiat. Velit occaecat eiusmod et officia mollit adipisicing sit mollit voluptate. Eu in velit aute in et mollit proident. Ad ut tempor enim esse consectetur reprehenderit sint incididunt sunt culpa sit est. Occaecat qui occaecat voluptate commodo veniam et culpa ullamco dolore pariatur duis commodo nulla ut."
}, {
  "id": 6,
  "photo": "https://picsum.photos/id/6/500/500",
  "text": "Pariatur ipsum veniam magna nulla ea. Duis eu consequat eu excepteur magna cupidatat veniam veniam in. Sunt enim commodo commodo id laborum ea duis. Cillum incididunt labore ipsum enim quis excepteur sit ea ipsum do dolore duis nostrud ad. Fugiat ut pariatur labore amet esse laboris reprehenderit. Irure Lorem veniam anim velit reprehenderit excepteur voluptate sint excepteur nisi. Dolor veniam esse tempor eu ipsum velit enim exercitation elit pariatur cillum officia.\nDolor minim id laboris adipisicing labore. Consequat amet fugiat mollit veniam ex culpa. In exercitation consequat ex elit commodo sit dolore veniam consequat et mollit exercitation aliquip do. Consectetur culpa mollit sint anim. Amet consequat adipisicing est esse incididunt mollit cillum anim in adipisicing commodo commodo enim. Consequat velit ea aute incididunt commodo reprehenderit culpa sint sunt eu tempor consectetur. Ullamco ad cupidatat irure voluptate ad nostrud. Non ea labore dolore enim laboris nulla nulla irure."
}, {
  "id": 7,
  "photo": "https://picsum.photos/id/7/500/500",
  "text": "Pariatur ad id aliqua velit cillum exercitation adipisicing minim cillum aliqua irure ea elit. Commodo voluptate sit eu incididunt sint eu Lorem proident ea qui labore in proident irure. Excepteur Lorem anim Lorem esse aute qui aute enim laborum. Tempor cillum incididunt ut eu sit Lorem nulla eiusmod sint. Eiusmod consectetur sunt excepteur irure officia dolore aliqua quis amet est nostrud reprehenderit culpa dolore. Reprehenderit nulla adipisicing incididunt non commodo aliqua sint cupidatat commodo enim duis amet.\nAd dolor fugiat dolore ad aute consectetur officia et culpa veniam Lorem excepteur. Officia quis laborum laboris ex amet laborum duis occaecat labore id nisi fugiat nulla. Ipsum ipsum ad laboris minim dolore laborum. Anim officia voluptate et dolore culpa do Lorem velit. Esse veniam deserunt sunt in esse ad nisi ipsum adipisicing ex nisi cillum dolore Lorem. Excepteur ut culpa eiusmod veniam consequat laborum veniam adipisicing amet. Velit do est consectetur adipisicing laborum excepteur cillum Lorem voluptate ea occaecat."
}, {
  "id": 8,
  "photo": "https://picsum.photos/id/8/500/500",
  "text": "Eu incididunt tempor anim amet voluptate anim laborum consequat enim mollit amet culpa velit. Eiusmod aute amet veniam est. Sint ullamco sit non et consectetur reprehenderit fugiat tempor officia consequat et culpa nulla. Lorem ad aliquip magna pariatur.\nLabore voluptate ad sunt aliquip dolor duis do laboris ea consequat dolore. Duis tempor dolore velit fugiat amet proident. Incididunt mollit sunt cupidatat ullamco ad Lorem irure duis. Ad esse tempor sit eiusmod reprehenderit cupidatat enim. Esse aliqua laborum eiusmod do dolor adipisicing adipisicing eiusmod cillum deserunt non et. Sunt commodo reprehenderit ipsum quis. In sit elit enim adipisicing."
}, {
  "id": 9,
  "photo": "https://picsum.photos/id/9/500/500",
  "text": "Voluptate eiusmod pariatur sint ad. Do culpa aute proident do ullamco excepteur nulla esse ullamco. Ex do quis velit nulla do laboris eu qui commodo ut pariatur cillum Lorem. Consequat aliqua et qui duis reprehenderit amet officia laborum consequat ea do magna.\nIncididunt veniam anim et sunt anim consectetur et deserunt non. Eu labore proident aliquip dolor veniam non. Ullamco irure irure mollit do do do fugiat Lorem voluptate quis minim occaecat enim excepteur. Sunt consequat aliquip labore id ad eu aliquip dolore voluptate ex reprehenderit qui. Velit non amet laborum quis nulla pariatur enim tempor aliquip nulla minim."
}, {
  "id": 10,
  "photo": "https://picsum.photos/id/10/500/500",
  "text": "Duis sit amet laboris excepteur eu minim aliquip deserunt id occaecat sit pariatur amet aliquip. Labore anim nulla sint dolor. Esse ut pariatur minim incididunt do incididunt. Nulla nostrud commodo enim minim magna occaecat commodo consectetur. Esse consectetur est aliqua incididunt consectetur amet tempor fugiat. Sunt voluptate anim commodo culpa nulla laborum sunt culpa. Enim magna fugiat pariatur Lorem nisi enim elit dolor ipsum.\nFugiat esse consectetur laborum nulla qui ea velit. Et labore nulla est eu elit ullamco duis aliquip deserunt do ut commodo. Aute labore eiusmod nisi do aute culpa veniam velit. Proident deserunt excepteur ut nostrud. Anim anim nulla anim eiusmod duis nisi."
}, {
  "id": 11,
  "photo": "https://picsum.photos/id/11/500/500",
  "text": "Magna velit do eu mollit. Nisi elit laboris eiusmod non duis ea dolor velit aliquip commodo adipisicing nisi est reprehenderit. Duis minim aliqua exercitation Lorem. Sunt consectetur eu aliquip elit Lorem ipsum Lorem nostrud sit magna cillum aliqua sint exercitation. Dolore adipisicing mollit tempor proident sit do id nostrud ipsum ad incididunt. Culpa cupidatat quis qui ad.\nSit ea cupidatat in proident tempor exercitation. Veniam minim qui nisi excepteur veniam id non sunt cupidatat adipisicing sit. Nisi anim proident ea magna culpa deserunt id commodo proident veniam qui sint ut magna. Consectetur veniam cillum et magna eu ea do eiusmod veniam eu ad sit. Adipisicing est voluptate magna dolore consequat labore non dolore. Sit labore nostrud sit adipisicing officia. Velit et eiusmod officia non et consectetur velit nostrud."
}, {
  "id": 12,
  "photo": "https://picsum.photos/id/12/500/500",
  "text": "Do et amet pariatur eu mollit magna aliquip labore ipsum eu esse. Amet fugiat incididunt aliquip nisi ad ad culpa ut anim anim. Ipsum et id quis duis cupidatat est esse. Magna elit do esse duis ea officia sint aute nisi deserunt cupidatat eu minim ad. Dolore sit minim proident mollit magna. Qui mollit irure aute ipsum minim in magna adipisicing fugiat. Cupidatat sint deserunt non proident fugiat tempor eiusmod velit officia excepteur. Eiusmod commodo consectetur Lorem veniam consectetur nisi deserunt quis.\nId proident incididunt culpa pariatur aliquip nostrud ullamco nulla ad reprehenderit cupidatat excepteur labore consequat. Lorem labore reprehenderit exercitation cupidatat et qui minim anim et minim magna in do. Reprehenderit minim in duis exercitation consectetur exercitation. Esse elit elit qui aute. Sit occaecat magna elit officia cupidatat amet ea elit cillum ex ex exercitation. Laborum ea adipisicing amet nisi mollit ex duis qui fugiat ea consectetur consequat amet elit. Enim exercitation adipisicing excepteur non sint commodo labore aliquip exercitation culpa."
}, {
  "id": 13,
  "photo": "https://picsum.photos/id/13/500/500",
  "text": "Irure ad velit amet ea consectetur laboris et labore id do. Voluptate anim excepteur deserunt laboris velit sint consequat occaecat amet duis deserunt officia fugiat nostrud. Reprehenderit adipisicing reprehenderit dolor et est. Lorem velit ex cillum duis et fugiat ex et fugiat aliqua. Ut laborum duis ex non ea nostrud ex quis anim ad adipisicing sint sint. Do laboris cupidatat qui occaecat nisi. Ad ex ullamco consectetur do sit adipisicing labore proident sit nisi sint.\nDo voluptate in aliqua eu officia sunt. Magna tempor fugiat deserunt dolore esse minim eiusmod laborum aliquip duis consequat duis eu do. Dolor dolor non ipsum tempor. Ipsum est labore velit nostrud sunt culpa ullamco. Sint deserunt quis aliqua cupidatat minim fugiat incididunt. Velit aliquip id exercitation sunt."
}, {
  "id": 14,
  "photo": "https://picsum.photos/id/14/500/500",
  "text": "Ullamco elit ipsum nulla non non culpa voluptate amet sunt dolor Lorem esse. Consequat Lorem exercitation quis enim fugiat eu occaecat reprehenderit est veniam cillum Lorem in anim. Tempor laborum mollit enim incididunt do reprehenderit nisi commodo dolore proident ex. Ex est ullamco aute sit est excepteur nostrud duis nostrud ullamco adipisicing officia nostrud. Magna labore occaecat Lorem adipisicing quis commodo sit officia commodo aliquip laboris quis cupidatat.\nVelit deserunt nulla ea culpa in proident eu nostrud enim do non ullamco. Est nisi Lorem nulla culpa. Commodo officia fugiat cillum ipsum eu ullamco duis ut dolor. Sit quis irure adipisicing laborum deserunt duis ipsum proident eiusmod ex. Officia fugiat ad deserunt aliquip aute quis. Id deserunt sunt et non duis id. Duis reprehenderit mollit officia minim non anim velit cupidatat fugiat amet."
}, {
  "id": 15,
  "photo": "https://picsum.photos/id/15/500/500",
  "text": "Adipisicing culpa culpa sunt ex aliquip do cillum ea occaecat nostrud in non amet nulla. Nostrud laborum ex irure fugiat labore labore enim magna quis mollit. Laboris labore labore nostrud laborum deserunt elit deserunt ut veniam mollit nulla aliquip. Commodo proident ex aliquip velit officia. Exercitation excepteur duis in do excepteur eu dolore nisi. Cupidatat aute minim cillum veniam nostrud pariatur sit adipisicing dolore.\nLabore incididunt ipsum non occaecat elit eu laborum magna non cupidatat. Sit ipsum nisi commodo ut ut irure minim nulla enim do nisi cupidatat consequat. Laborum dolore aliquip excepteur ipsum nostrud non labore tempor nostrud reprehenderit id in ut. Est culpa proident consectetur voluptate commodo. Officia in excepteur incididunt laborum."
}, {
  "id": 16,
  "photo": "https://picsum.photos/id/16/500/500",
  "text": "Aute aute commodo incididunt culpa laboris nulla labore fugiat. Excepteur excepteur aute labore deserunt. Minim eu irure ex nostrud tempor pariatur reprehenderit. Est qui aute esse excepteur nostrud ea elit adipisicing eiusmod.\nLorem consectetur exercitation esse nostrud veniam reprehenderit sit exercitation. Ex esse tempor ipsum deserunt voluptate irure qui consequat occaecat anim et proident laborum. Et amet laboris proident qui in tempor exercitation aliqua. Reprehenderit labore quis qui dolor duis ipsum sit qui adipisicing id mollit consectetur do anim. Aliquip Lorem ex do labore aliqua voluptate. Incididunt voluptate ex elit nisi magna consectetur id eu aute magna exercitation do esse non."
}, {
  "id": 17,
  "photo": "https://picsum.photos/id/17/500/500",
  "text": "Ad irure sunt duis nulla veniam. Veniam labore eiusmod qui ex anim mollit in minim. Proident ea velit ex dolore ea ad anim. Consequat cillum fugiat exercitation officia ipsum.\nDo qui ut officia aliquip qui culpa id cillum aute pariatur. Lorem quis culpa consequat pariatur Lorem. Est incididunt nostrud est elit et laborum elit eu. Irure ut in elit sint nostrud do culpa est id veniam exercitation commodo cupidatat esse. Cupidatat dolore exercitation deserunt occaecat et."
}, {
  "id": 18,
  "photo": "https://picsum.photos/id/18/500/500",
  "text": "Aliquip officia aliqua cillum fugiat anim nisi laboris id. Proident consectetur aute officia elit officia minim minim ut culpa magna dolor aute laboris reprehenderit. Voluptate ex nisi veniam proident occaecat consectetur sint cupidatat mollit id sunt. Ullamco dolor anim consectetur magna qui est sunt ex ullamco Lorem Lorem proident.\nEu deserunt do deserunt pariatur et ea in voluptate. Aliquip ut magna ad ipsum veniam officia aliqua consequat adipisicing deserunt aliqua magna nostrud. Elit esse qui adipisicing excepteur occaecat commodo laborum. Amet laboris officia proident et. Ad consectetur fugiat nulla et reprehenderit irure sint elit officia ex amet nostrud. Sit reprehenderit cillum qui nulla consequat exercitation magna fugiat eu occaecat ullamco voluptate aute et. Labore eu velit duis aliqua."
}, {
  "id": 19,
  "photo": "https://picsum.photos/id/19/500/500",
  "text": "Nostrud laboris eiusmod ex culpa ullamco incididunt fugiat pariatur sunt in voluptate laborum excepteur non. Consectetur irure ex nisi consequat eiusmod velit nisi id nostrud in cillum. Est commodo consequat qui id eiusmod eu veniam duis velit laborum velit exercitation excepteur. Officia nisi ea ipsum enim ex veniam reprehenderit enim. Velit deserunt nulla anim fugiat mollit aliquip voluptate est eiusmod eu veniam. Officia minim ad aute est veniam incididunt do reprehenderit duis commodo consequat. Reprehenderit voluptate fugiat aliqua incididunt aliquip ex dolore dolor velit do nulla ullamco. Mollit mollit in et ut.\nConsequat laborum minim ullamco anim tempor occaecat. Nostrud aliqua eiusmod nisi commodo. Sint sit est eu velit duis laborum voluptate dolor duis incididunt irure sint. Do qui fugiat magna exercitation irure ullamco sint culpa."
}, {
  "id": 20,
  "photo": "https://picsum.photos/id/20/500/500",
  "text": "Proident consequat eiusmod exercitation quis non mollit non culpa. Eiusmod nulla incididunt excepteur Lorem minim fugiat fugiat id commodo tempor commodo nostrud enim velit. In laboris deserunt sunt do amet nostrud irure esse. Aliqua cillum exercitation quis ad mollit qui non aliqua sint do pariatur duis. Non mollit nulla minim nulla excepteur dolore aliqua esse in. Magna incididunt dolore et consectetur cillum irure veniam cupidatat aliquip qui. Ad officia dolor elit officia consequat cillum cillum amet in laboris commodo dolore in et.\nUllamco irure sunt duis sit mollit cupidatat velit sunt duis. Elit in est eu ipsum labore aute et deserunt aliqua nulla. Fugiat pariatur amet occaecat aliqua velit cupidatat sunt aute occaecat enim commodo irure velit. Ipsum incididunt occaecat commodo amet pariatur esse nostrud mollit ut ea ex ex eiusmod. Irure laboris cillum in proident in. Commodo officia Lorem veniam amet qui velit. Ea eiusmod cillum exercitation deserunt irure reprehenderit elit incididunt ea."
}]
